{
  "development": {
    "username": "root",
    "password": "",
    "database": "reservtable",
    "host": "127.0.0.1",
    "dialect": "mysql",
    "define":{
      "freezeTableName": true,
      "underscored": false
    }
  },
  "test": {
    "username": "root",
    "password": "root",
    "database": "reservtable",
    "host": "127.0.0.1",
    "dialect": "mysql",
    "define":{
      "freezeTableName": true,
      "underscored": false
    }
  },
  "production": {
    "username": "root",
    "password": "#ll1pdb",
    "database": "reservtable",
    "host": "127.0.0.1",
    "dialect": "mysql",
    "define":{
      "freezeTableName": true,
      "underscored": false
    }
  }
}
